…
You can install the development version of anscrapR from [GitHub](https://github.com/) with:

``` r
# install.packages("devtools")
devtools::install_github("john-b-edwards/anscrapR")
```

## Example

You can scrape a variety of sports with the existing functionality of anscrapR.

``` r
anscrapR::scrape_nfl_game_odds(week = 1, season_type = "reg", season = 2018)
#> # A tibble: 6,003 x 16
#>    game_id status  start_time away_team_id home_team_id league_name type  season
#>      <int> <chr>   <chr>             <int>        <int> <chr>       <chr>  <int>
#>  1   44367 comple~ 2018-09-0~          151          142 nfl         reg     2018
#>  2   44367 comple~ 2018-09-0~          151          142 nfl         reg     2018
#>  3   44367 comple~ 2018-09-0~          151          142 nfl         reg     2018
#>  4   44367 comple~ 2018-09-0~          151          142 nfl         reg     2018
#>  5   44367 comple~ 2018-09-0~          151          142 nfl         reg     2018
#>  6   44367 comple~ 2018-09-0~          151          142 nfl         reg     2018
#>  7   44367 comple~ 2018-09-0~          151          142 nfl         reg     2018
#>  8   44367 comple~ 2018-09-0~          151          142 nfl         reg     2018
#>  9   44367 comple~ 2018-09-0~          151          142 nfl         reg     2018
#> 10   44367 comple~ 2018-09-0~          151          142 nfl         reg     2018
#> # ... with 5,993 more rows, and 8 more variables: away_team_name <chr>,
#> #   home_team_name <chr>, book <chr>, book_id <int>, scope <chr>,
#> #   updated <dttm>, bet_type <chr>, value <dbl>
```
…
